{
  "page": 1,
  "total_results": 117,
  "total_pages": 6,
  "results": [
    {
      "vote_count": 6233,
      "id": 299537,
      "video": false,
      "vote_average": 7,
      "title": "Captain Marvel",
      "popularity": 106.117,
      "poster_path": "\/AtsgWhDnHTq68L0lLsUrCnM7TjG.jpg",
      "original_language": "en",
      "original_title": "Captain Marvel",
      "genre_ids": [
        28,
        12,
        878
      ],
      "backdrop_path": "\/w2PMyoyLU22YvrGK3smVM9fW1jj.jpg",
      "adult": false,
      "overview": "The story follows Carol Danvers as she becomes one of the universe’s most powerful heroes when Earth is caught in the middle of a galactic war between two alien races. Set in the 1990s, Captain Marvel is an all-new adventure from a previously unseen period in the history of the Marvel Cinematic Universe.",
      "release_date": "2019-03-06"
    },
    {
      "vote_count": 205,
      "id": 76122,
      "video": false,
      "vote_average": 6.5,
      "title": "Marvel One-Shot: The Consultant",
      "popularity": 13.041,
      "poster_path": "\/75AsB4NRKaYanuCeKYgIh2hfsR1.jpg",
      "original_language": "en",
      "original_title": "Marvel One-Shot: The Consultant",
      "genre_ids": [
        12,
        14,
        878,
        28
      ],
      "backdrop_path": "\/tHthULHaBaWLS1z2UfYhvHphJSb.jpg",
      "adult": false,
      "overview": "Agent Coulson informs Agent Sitwell that the World Security Council wishes Emil Blonsky to be released from prison to join the Avengers Initiative. As Nick Fury doesn't want to release Blonsky, the two agents decide to send a patsy to sabotage the meeting...",
      "release_date": "2011-09-12"
    },
    {
      "vote_count": 207,
      "id": 119569,
      "video": false,
      "vote_average": 6.6,
      "title": "Marvel One-Shot: Item 47",
      "popularity": 11.416,
      "poster_path": "\/i8i7xHztK5fb4ZXQ6BhOEwmnpQj.jpg",
      "original_language": "en",
      "original_title": "Marvel One-Shot: Item 47",
      "genre_ids": [
        878,
        28,
        14
      ],
      "backdrop_path": "\/lfyIXwFQUUO52BmhbLWuPxWu9gD.jpg",
      "adult": false,
      "overview": "Benny and Claire, a down on their luck couple find a discarded Chitauri gun, referred to as 'Item 47'...",
      "release_date": "2012-09-13"
    },
    {
      "vote_count": 342,
      "id": 211387,
      "video": false,
      "vote_average": 7.6,
      "title": "Marvel One-Shot: Agent Carter",
      "popularity": 10.677,
      "poster_path": "\/eiw4sh6ieAVuJq6E1bSHQkZPfwm.jpg",
      "original_language": "en",
      "original_title": "Marvel One-Shot: Agent Carter",
      "genre_ids": [
        28,
        12,
        878,
        14
      ],
      "backdrop_path": "\/jpMVir4cCQJbtmruzpNd12yJj7Y.jpg",
      "adult": false,
      "overview": "The film takes place one year after the events of Captain America: The First Avenger, in which Agent Carter, a member of the Strategic Scientific Reserve, is in search of the mysterious Zodiac.",
      "release_date": "2013-09-08"
    },
    {
      "vote_count": 200,
      "id": 253980,
      "video": false,
      "vote_average": 7,
      "title": "Marvel One-Shot: All Hail the King",
      "popularity": 9.705,
      "poster_path": "\/iVtM6mybR5kq3aE4opGnm9EIffF.jpg",
      "original_language": "en",
      "original_title": "Marvel One-Shot: All Hail the King",
      "genre_ids": [
        28,
        35,
        18,
        14,
        53
      ],
      "backdrop_path": "\/rprTrfEdeu86szhwGZ8KEjJ5KJW.jpg",
      "adult": false,
      "overview": "A documentary filmmaker interviews the now-famous Trevor Slattery from behind bars.",
      "release_date": "2014-02-04"
    },
    {
      "vote_count": 60,
      "id": 259910,
      "video": false,
      "vote_average": 6.6,
      "title": "Marvel Studios: Assembling a Universe",
      "popularity": 6.294,
      "poster_path": "\/5LLBKBH4udb0wJveefs1acQ2pW9.jpg",
      "original_language": "en",
      "original_title": "Marvel Studios: Assembling a Universe",
      "genre_ids": [
        10770,
        99
      ],
      "backdrop_path": "\/adto5SCBYcr7trKjmhzRCMJmZZW.jpg",
      "adult": false,
      "overview": "A look at the story behind Marvel Studios and the Marvel Cinematic Universe, featuring interviews and behind-the-scenes footage from all of the Marvel films, the Marvel One-Shots and \"Marvel's Agents of S.H.I.E.L.D.\"",
      "release_date": "2014-03-18"
    },
    {
      "vote_count": 17,
      "id": 491633,
      "video": false,
      "vote_average": 6.1,
      "title": "Marvel Rising: Secret Warriors",
      "popularity": 4.11,
      "poster_path": "\/rXmc4jvDBU04Wp8r5JMWy3HbhB3.jpg",
      "original_language": "en",
      "original_title": "Marvel Rising: Secret Warriors",
      "genre_ids": [
        16,
        28,
        35,
        878,
        10770
      ],
      "backdrop_path": "\/95AKEQdhAF7YlH6XJSOFaqNTW0J.jpg",
      "adult": false,
      "overview": "When a threat no one could have expected bears down on the Marvel Universe, this ragtag, untrained band of teens have no choice but to rise together and prove to the world that sometimes the difference between a 'hero' and 'misfit' is just in the name.",
      "release_date": "2018-09-30"
    },
    {
      "vote_count": 156,
      "id": 76535,
      "video": false,
      "vote_average": 7.2,
      "title": "Marvel One-Shot: A Funny Thing Happened on the Way to Thor's Hammer",
      "popularity": 12.213,
      "poster_path": "\/5uGaqAnt0RQ87uKy8UlRDNrL2jY.jpg",
      "original_language": "en",
      "original_title": "Marvel One-Shot: A Funny Thing Happened on the Way to Thor's Hammer",
      "genre_ids": [
        878,
        14
      ],
      "backdrop_path": "\/wdMq7F5Cr1DGg8ioNPZvWxqQer4.jpg",
      "adult": false,
      "overview": "Agent Coulson stops at a convenience store and deals with a coincidental robbery during his visit.",
      "release_date": "2011-10-25"
    },
    {
      "vote_count": 68,
      "id": 474227,
      "video": false,
      "vote_average": 5,
      "title": "Inhumans: The First Chapter",
      "popularity": 3.956,
      "poster_path": "\/p1f444t4JGF0t8HnRJAcS8xndxF.jpg",
      "original_language": "en",
      "original_title": "Inhumans: The First Chapter",
      "genre_ids": [
        878,
        28,
        12,
        10770
      ],
      "backdrop_path": "\/zJ4xmyVLYU9Lu3yfYiJNFiLL51D.jpg",
      "adult": false,
      "overview": "After the Royal Family of Inhumans is splintered by a military coup, they barely escape to Hawaii where their surprising interactions with the lush world and humanity around them may prove to not only save them, but Earth itself.",
      "release_date": "2017-09-01"
    },
    {
      "vote_count": 47,
      "id": 284019,
      "video": false,
      "vote_average": 6.1,
      "title": "Phineas and Ferb: Mission Marvel",
      "popularity": 3.364,
      "poster_path": "\/uEqgmBUqFdWbCgB5Yby6Nv5681p.jpg",
      "original_language": "en",
      "original_title": "Phineas and Ferb: Mission Marvel",
      "genre_ids": [
        28,
        12,
        878
      ],
      "backdrop_path": "\/omSsI9gwA2zkILdOtdYT6XyaKxn.jpg",
      "adult": false,
      "overview": "When Dr. Doofenshmirtz's latest invention causes the Marvel heroes to lose their powers, they team up with Phineas and Ferb to save the world from Doofenshmirtz and the Marvel villains.",
      "release_date": "2013-08-16"
    },
    {
      "vote_count": 10,
      "id": 61020,
      "video": false,
      "vote_average": 6.7,
      "title": "Adventures of Captain Marvel",
      "popularity": 2.365,
      "poster_path": "\/8lw00AKUPzDfQ78MzZQLCMcaVAb.jpg",
      "original_language": "en",
      "original_title": "Adventures of Captain Marvel",
      "genre_ids": [
        14,
        28,
        878,
        10751
      ],
      "backdrop_path": "\/dkWcUCrXFTotX4VoIguEVC511dh.jpg",
      "adult": false,
      "overview": "On a scientific expedition to Siam young Billy Batson is given the ability to change himself into the super-powered Captain Marvel by the wizard Shazam, who tells him his powers will last only as long as the Golden Scorpion idol is threatened. Finding the idol, the scientists realize it could be the most powerful weapon in the world and remove the lenses that energize it, distributing them among themselves so that no one would be able to use the idol by himself. Back in the US, Billy Batson, as Captain Marvel, wages a battle against an evil, hooded figure, the Scorpion, who hopes to accumulate all five lenses, thereby gaining control of the super-powerful weapon",
      "release_date": "1941-03-28"
    },
    {
      "vote_count": 30,
      "id": 299969,
      "video": false,
      "vote_average": 7.2,
      "title": "Marvel: 75 Years, From Pulp to Pop!",
      "popularity": 4.234,
      "poster_path": "\/g716rAncfsYzny2eZoxX8txjdRw.jpg",
      "original_language": "en",
      "original_title": "Marvel: 75 Years, From Pulp to Pop!",
      "genre_ids": [
        99
      ],
      "backdrop_path": "\/7kKsMO1meOBTfat6eBjJjNayslA.jpg",
      "adult": false,
      "overview": "In celebration of the publisher's 75th anniversary, the hour-long special will take a detailed look at the company's journey from fledgling comics publisher to multi-media juggernaut. Hosted by Emily VanCamp (S.H.I.E.L.D. Agent Sharon Carter), the documentary-style feature will include interviews with comic book icons, pop culture authorities, and Hollywood stars.  The special also promises an \"extraordinary peek into Marvel's future!\" Might Marvel release the first official footage from next year's Avengers: Age of Ultron or Ant-Man? If they do, you'll know about it here.",
      "release_date": "2014-11-04"
    },
    {
      "vote_count": 58,
      "id": 253617,
      "video": false,
      "vote_average": 6.5,
      "title": "LEGO Marvel Super Heroes: Maximum Overload",
      "popularity": 3.732,
      "poster_path": "\/kZgXXEzgldKseNBezbXa03kXNzG.jpg",
      "original_language": "en",
      "original_title": "LEGO Marvel Super Heroes: Maximum Overload",
      "genre_ids": [
        28,
        16,
        35,
        10751
      ],
      "backdrop_path": "\/k39ctNu53NMJIPl2Qaivd7sQFLL.jpg",
      "adult": false,
      "overview": "Villainous Loki is amassing an army to conquer Earth! His antics are keeping Spider-Man and S.H.I.E.L.D. busy as they tackle a host of bad guys.",
      "release_date": "2013-11-05"
    },
    {
      "vote_count": 1,
      "id": 166884,
      "video": false,
      "vote_average": 1,
      "title": "Marvel Super Heroes 4D",
      "popularity": 1.96,
      "poster_path": "\/ueRHm0vvfn3npo5WcyWHBlo6sch.jpg",
      "original_language": "en",
      "original_title": "Marvel Super Heroes 4D",
      "genre_ids": [
        28,
        16
      ],
      "backdrop_path": null,
      "adult": false,
      "overview": "The Marvel Super-Heroes (Spider-Man, Captain America, Iron Man, Hulk) arrive for a party at a deserted Buckingham Palace in London and are attacked by a giant robot.",
      "release_date": "2010-05-31"
    },
    {
      "vote_count": 4,
      "id": 258670,
      "video": false,
      "vote_average": 4,
      "title": "Marvel Renaissance",
      "popularity": 1.276,
      "poster_path": "\/2kwR7ErqMg2ZJ9I4XREpKMPcfzf.jpg",
      "original_language": "fr",
      "original_title": "Marvel Renaissance",
      "genre_ids": [
        99
      ],
      "backdrop_path": "\/zAsk880Ag1yi2fQosOcYrWDbIuW.jpg",
      "adult": false,
      "overview": "",
      "release_date": "2014-02-28"
    },
    {
      "vote_count": 0,
      "id": 609681,
      "video": false,
      "vote_average": 0,
      "title": "Captain Marvel 2",
      "popularity": 1.768,
      "poster_path": "\/3BINA6kL4YvsTV66uBLqn64Glb1.jpg",
      "original_language": "en",
      "original_title": "Captain Marvel 2",
      "genre_ids": [],
      "backdrop_path": "\/iGtSJbDku0riOw1joO1qD4pGwdm.jpg",
      "adult": false,
      "overview": "Upcoming sequel to Captain Marvel (2019).",
      "release_date": ""
    },
    {
      "vote_count": 29,
      "id": 368304,
      "video": false,
      "vote_average": 6.3,
      "title": "LEGO Marvel Super Heroes: Avengers Reassembled!",
      "popularity": 2.366,
      "poster_path": "\/pPdB6N9iJjn9GwrNkhMS1FKgx22.jpg",
      "original_language": "en",
      "original_title": "LEGO Marvel Super Heroes: Avengers Reassembled!",
      "genre_ids": [
        16
      ],
      "backdrop_path": "\/7QNGBStqOLNtKrczEmbjfuCHKjo.jpg",
      "adult": false,
      "overview": "In \"LEGO Marvel Super Heroes: Avengers Reassembled!,\" the Avengers prepare for a party at Stark Tower and notice that Iron Man is acting strange. After some investigation, they discover that the evil Ultron has taken control of Iron Man and his armor as part of his scheme to take over the world. It's up to Captain America, the Hulk, Thor, Vision, Black Widow, Hawkeye and their friends (Spider-Man, Iron Spider, and special guest star Ant-Man) to rescue Iron Man from Ultron's clutches and defeat the super villain before he causes even more destruction and chaos.",
      "release_date": "2015-11-16"
    },
    {
      "vote_count": 1,
      "id": 561438,
      "video": false,
      "vote_average": 10,
      "title": "Marvel Mon Amour",
      "popularity": 1.155,
      "poster_path": "\/fsIKuT9q4B3HGpabE7j7VEpuVPh.jpg",
      "original_language": "en",
      "original_title": "Marvel Mon Amour",
      "genre_ids": [
        99
      ],
      "backdrop_path": "\/ghzgNTT2oXt4ChX7QybaE2WlQiZ.jpg",
      "adult": false,
      "overview": "In a new video for the Criterion Channel on FilmStruck, Marvel Comics mastermind Stan Lee talks about his friendship with Alain Resnais.",
      "release_date": "2018-02-26"
    },
    {
      "vote_count": 1,
      "id": 3846,
      "video": false,
      "vote_average": 4,
      "title": "The Musical Marvel",
      "popularity": 1.121,
      "poster_path": "\/vJupe3NGVvxGK32YxThagIH8ki8.jpg",
      "original_language": "en",
      "original_title": "The Musical Marvel",
      "genre_ids": [
        35
      ],
      "backdrop_path": null,
      "adult": false,
      "overview": "No overview found.",
      "release_date": "1917-02-11"
    },
    {
      "vote_count": 1,
      "id": 583209,
      "video": false,
      "vote_average": 4,
      "title": "Marvel Rising: Heart of Iron",
      "popularity": 1.4,
      "poster_path": "\/z3lD286jY8iYasC5hJZ2kgZF9uY.jpg",
      "original_language": "en",
      "original_title": "Marvel Rising: Heart of Iron",
      "genre_ids": [
        16,
        878,
        28
      ],
      "backdrop_path": null,
      "adult": false,
      "overview": "Ironheart, AKA Riri Williams (voiced by Sofia Wylie), who is having difficulty adjusting to college life as the youngest student there then the college's engineering lab is demolished by an alien and kidnaps her best friend. Inspired by Iron Man, she develops a plan to save her friend. The special will also feature appearances by Iron Man (voiced by Mick Wingert) and a new character named A.M.I. (voiced by Melanie Minichino).",
      "release_date": "2019-04-03"
    }
  ]
}
